{
	"facebook": {
		"website": "https://facebook.com"
	}, 
	"twitter": {
		"website": "https://twitter.com",
		"consumer_key": "xi20aCAxx9ISLR0MT9ZLvX0Kd",
		"consumer_secret": "ls5jotEW8DNnTo1mpmXJj00WmWreWhile2NFiQBqfthCGVJej7",
		"access_token": "1207177492496179202-MR9fZFTd7IsrJ9dHesimc9aJsbjnMU",
		"access_secret": "D53VcVh41YGgMRUllz0rtUOWYgcD6FZgxoD4txvSt8FyY"
	}
}